…
# Results

## Summary

We can now have a look at the results (e.g., by summarising the power or
effect sizes across the different specifications).

``` r
# Power in each combination
df %>%
  select(-contains("p"), -contains("es")) %>%
  gather(key, value, -n, -sd) %>%
  group_by(n, sd, key) %>%
  summarize(power = sum(value))
## # A tibble: 207 x 4
## # Groups:   n, sd [69]
##        n    sd key   power
##    <dbl> <dbl> <chr> <dbl>
##  1   100   1   sig_1   797
##  2   100   1   sig_2   986
##  3   100   1   sig_3   412
##  4   100   1.5 sig_1   508
##  5   100   1.5 sig_2   785
##  6   100   1.5 sig_3   196
##  7   100   2   sig_1   306
##  8   100   2   sig_2   552
##  9   100   2   sig_3   159
## 10   140   1   sig_1   924
## # … with 197 more rows

# Average effect size in each combination
(es <- df %>%
  select(-contains("p"), -contains("sig")) %>%
  gather(key, value, -n, -sd) %>%
  group_by(n, sd, key) %>%
  summarize(cohens_f = mean(value),
            se = psych::describe(value)$se,
            ll = cohens_f - 1.96*se,
            ul = cohens_f + 1.96*se))
## # A tibble: 207 x 7
## # Groups:   n, sd [69]
##        n    sd key   cohens_f      se    ll    ul
##    <dbl> <dbl> <chr>    <dbl>   <dbl> <dbl> <dbl>
##  1   100   1   es_1     0.277 0.00290 0.271 0.283
##  2   100   1   es_2     0.406 0.00317 0.400 0.412
##  3   100   1   es_3     0.185 0.00305 0.179 0.191
##  4   100   1.5 es_1     0.203 0.00298 0.197 0.208
##  5   100   1.5 es_2     0.282 0.00323 0.276 0.288
##  6   100   1.5 es_3     0.131 0.00284 0.126 0.137
##  7   100   2   es_1     0.155 0.00282 0.150 0.161
##  8   100   2   es_2     0.218 0.00328 0.211 0.224
##  9   100   2   es_3     0.116 0.00263 0.111 0.121
## 10   140   1   es_1     0.280 0.00250 0.275 0.285
## # … with 197 more rows
…
